name,hostname,ssh-port,ssh-username,ssh-password
Adib,adib.me,8181,lxadib,Admin_1234!
Saeed,saeed-web.com,8181,saeed,Admin_1234!
Mohammad,mamad.net,8181,mamad,Admin_1234!
gimili,gimili.com,8181,gimi,Admin_1234!
soraya,soraya.co,8181,sori,Admin_1234!
somaye,somaye.net,8181,somi,Admin_1234!
Fateme,fati-dev.net,8181,fati,Admin_1234!
Samira,samira.me,8181,samira,Admin_1234!
Amir,amir-dev.me,8181,amir,Admin_1234!